[
  {
    "id": 1,
    "deviceNumber": 43,
    "name": " חזה",
    "icon": 5,
    "weight": 37.5,
    "repititions": 15,
    "sets": 2,
    "notes": ""
  },
  {
    "id": 3,
    "deviceNumber": 1,
    "icon": "6",
    "name": "רשן טוויסט",
    "weight": 5,
    "repititions": 40,
    "sets": 2,
    "notes": "משקולת אחת של 5"
  },
  {
    "id": 4,
    "deviceNumber": 26,
    "icon": "9",
    "name": "סגירה",
    "weight": 39,
    "repititions": 20,
    "sets": 2,
    "notes": "לחיצה פנימה פין 5"
  },
  {
    "id": 5,
    "deviceNumber": 37,
    "icon": "8",
    "name": "סקוואטים",
    "weight": 5,
    "repititions": 10,
    "sets": 2,
    "notes": "שתי משקולות 5"
  },
  {
    "id": 6,
    "deviceNumber": 45,
    "icon": "5",
    "name": "משיכות",
    "weight": 45,
    "repititions": 17,
    "sets": 3,
    "notes": "משקולת עליונה "
  },
  {
    "id": 7,
    "deviceNumber": 2,
    "icon": "10",
    "name": "פלאנק",
    "weight": 0,
    "repititions": 0,
    "sets": 2,
    "notes": "45 ש"
  },
  {
    "id": 8,
    "deviceNumber": 77,
    "icon": "8",
    "name": "סטפר",
    "weight": 20,
    "repititions": 10,
    "sets": 3,
    "notes": "עולה, מאחד עד שלוש כל סיבוב"
  },
  {
    "id": 9,
    "deviceNumber": 1,
    "icon": "6",
    "name": "פנגווינים",
    "weight": 0,
    "repititions": 50,
    "sets": 2,
    "notes": ""
  },
  {
    "id": 10,
    "deviceNumber": 13,
    "icon": "3",
    "name": "טריספס",
    "weight": 23,
    "repititions": 18,
    "sets": 2,
    "notes": "מושב מסתיר 3"
  },
  {
    "id": 11,
    "deviceNumber": 49,
    "icon": "1",
    "name": "למעלה חבל",
    "weight": 25,
    "repititions": 20,
    "sets": 2,
    "notes": ""
  },
  {
    "id": 12,
    "deviceNumber": 48,
    "icon": "2",
    "name": "L 2 ישיבה",
    "weight": 28,
    "repititions": 15,
    "sets": 2,
    "notes": "L 2"
  },
  {
    "id": 13,
    "deviceNumber": 77,
    "icon": "8",
    "name": "ריצה",
    "weight": 20,
    "repititions": 10,
    "sets": 2,
    "notes": "קילומטר וחצי "
  },
  {
    "id": 14,
    "deviceNumber": 88,
    "icon": "5",
    "name": "משקולות",
    "weight": 6,
    "repititions": 15,
    "sets": 2,
    "notes": ""
  },
  {
    "id": 15,
    "deviceNumber": 50,
    "icon": "4",
    "name": "גב",
    "weight": 10,
    "repititions": 12,
    "sets": 2,
    "notes": ""
  },
  {
    "id": 16,
    "deviceNumber": 47,
    "icon": "2",
    "name": "M 0 5",
    "weight": 27.5,
    "repititions": 20,
    "sets": 2,
    "notes": "M 0 5"
  },
  {
    "id": 17,
    "deviceNumber": 38,
    "icon": "3",
    "name": "למעלה חבל",
    "weight": 15,
    "repititions": 11,
    "sets": 2,
    "notes": ""
  },
  {
    "id": 18,
    "deviceNumber": 1,
    "icon": "6",
    "name": "בטן 90מ",
    "weight": 0,
    "repititions": 25,
    "sets": 2,
    "notes": ""
  },
  {
    "id": 19,
    "deviceNumber": 26,
    "icon": "9",
    "name": "פתיחה",
    "weight": 39,
    "repititions": 20,
    "sets": 2,
    "notes": "לחיצה החוצה\nפין 2 "
  },
  {
    "id": 20,
    "deviceNumber": 38,
    "icon": "1",
    "name": "למטה מוט",
    "weight": 15,
    "repititions": 11,
    "sets": 2,
    "notes": ""
  },
  {
    "id": 21,
    "deviceNumber": 52,
    "icon": "2",
    "name": "דחיקה בחוץ",
    "weight": 40,
    "repititions": 20,
    "sets": 2,
    "notes": "רגליים. "
  },
  {
    "id": 22,
    "deviceNumber": 3,
    "icon": "4",
    "name": "פלנק",
    "weight": 0,
    "repititions": 0,
    "sets": 2,
    "notes": "מזרן. 45 ש"
  },
  {
    "id": 23,
    "deviceNumber": 51,
    "icon": "2",
    "name": "דחיקה",
    "weight": 25,
    "repititions": 20,
    "sets": 2,
    "notes": ""
  },
  {
    "id": 24,
    "deviceNumber": 25,
    "icon": "5",
    "name": "פרפר",
    "weight": 40,
    "repititions": 15,
    "sets": 3,
    "notes": ""
  },
  {
    "id": 25,
    "deviceNumber": 27,
    "icon": 3,
    "name": "Biceps",
    "weight": 18,
    "repititions": 15,
    "sets": 2,
    "notes": ""
  },
  {
    "id": 26,
    "deviceNumber": 23,
    "icon": "4",
    "name": "גב למעלה",
    "weight": 32,
    "repititions": 15,
    "sets": 2,
    "notes": "לעורף"
  },
  {
    "id": 27,
    "deviceNumber": 25,
    "icon": 3,
    "name": "פרפר אחורי",
    "weight": 37.5,
    "repititions": 15,
    "sets": 3,
    "notes": ""
  },
  {
    "id": 28,
    "deviceNumber": 49,
    "icon": "3",
    "name": "איקס משיכה",
    "weight": 16,
    "repititions": 15,
    "sets": 2,
    "notes": "עם הפנים למכשיר"
  },
  {
    "id": 29,
    "deviceNumber": 23,
    "icon": 3,
    "name": "חתירה",
    "weight": 25,
    "repititions": 12,
    "sets": 2,
    "notes": "תנועת גב "
  },
  {
    "id": 30,
    "deviceNumber": 33,
    "icon": "4",
    "name": "גב",
    "weight": 28,
    "repititions": 10,
    "sets": 2,
    "notes": "מוט ארוך למעלה"
  },
  {
    "id": 31,
    "deviceNumber": 33,
    "icon": "4",
    "name": "חתירה",
    "weight": 28,
    "repititions": 10,
    "sets": 2,
    "notes": ""
  },
  {
    "id": 32,
    "deviceNumber": 1,
    "icon": "6",
    "name": "1m פלאנק",
    "weight": 0,
    "repititions": 50,
    "sets": 2,
    "notes": ""
  },
  {
    "id": 33,
    "deviceNumber": 50,
    "icon": "10",
    "name": "ידיים חוץ",
    "weight": 15,
    "repititions": 12,
    "sets": 2,
    "notes": ""
  },
  {
    "id": 35,
    "deviceNumber": 62,
    "icon": "3",
    "name": "",
    "weight": 23,
    "repititions": 17,
    "sets": 2,
    "notes": ""
  },
  {
    "id": 36,
    "deviceNumber": 51,
    "icon": 3,
    "name": "כפות רגלים",
    "weight": 25,
    "repititions": 12,
    "sets": 2,
    "notes": ""
  },
  {
    "id": 37,
    "deviceNumber": 51,
    "icon": 3,
    "name": "15 כל יד",
    "weight": 15,
    "repititions": 20,
    "sets": 2,
    "notes": ""
  },
  {
    "id": 38,
    "deviceNumber": 51,
    "icon": 3,
    "name": "20 ליד",
    "weight": 20,
    "repititions": 13,
    "sets": 2,
    "notes": ""
  },
  {
    "id": 39,
    "deviceNumber": 53,
    "icon": 3,
    "name": "מתח",
    "weight": 45,
    "repititions": 10,
    "sets": 2,
    "notes": ""
  },
  {
    "id": 40,
    "deviceNumber": 90,
    "icon": "9",
    "name": " בחוץ רגליים",
    "weight": 10,
    "repititions": 15,
    "sets": 2,
    "notes": "10 כל צד"
  },
  {
    "id": 41,
    "deviceNumber": 49,
    "icon": 3,
    "name": " איקס רגיל",
    "weight": 23,
    "repititions": 15,
    "sets": 2,
    "notes": "ידית בודדת"
  },
  {
    "id": 42,
    "deviceNumber": 1,
    "icon": "6",
    "name": "אופניים",
    "weight": 0,
    "repititions": 40,
    "sets": 2,
    "notes": ""
  },
  {
    "id": 43,
    "deviceNumber": 2,
    "icon": "8",
    "name": "קרסוליים",
    "weight": 20,
    "repititions": 0,
    "sets": 2,
    "notes": ""
  },
  {
    "id": 44,
    "deviceNumber": 53,
    "icon": "10",
    "name": "ג'קסונים",
    "weight": 45,
    "repititions": 10,
    "sets": 2,
    "notes": ""
  },
  {
    "id": 45,
    "deviceNumber": 1,
    "icon": "6",
    "name": " 30 סטטי",
    "weight": 0,
    "repititions": 0,
    "sets": 0,
    "notes": "30 שניות"
  },
  {
    "id": 46,
    "deviceNumber": 49,
    "icon": 3,
    "name": "משיכה אחורי",
    "weight": 25,
    "repititions": 13,
    "sets": 2,
    "notes": ""
  },
  {
    "id": 47,
    "deviceNumber": 44,
    "icon": 3,
    "name": "כתפיים למעלה",
    "weight": 27.5,
    "repititions": 15,
    "sets": 2,
    "notes": ""
  },
  {
    "id": 48,
    "deviceNumber": 12,
    "icon": 3,
    "name": "חבלמעלה",
    "weight": 17.5,
    "repititions": 17,
    "sets": 2,
    "notes": ""
  },
  {
    "id": 49,
    "deviceNumber": 12,
    "icon": 3,
    "name": "יד אחת",
    "weight": 12.5,
    "repititions": 15,
    "sets": 2,
    "notes": ""
  },
  {
    "id": 50,
    "deviceNumber": 52,
    "icon": "2",
    "name": "סטטי",
    "weight": 10,
    "repititions": 15,
    "sets": 2,
    "notes": "בטן ירכיים גובה2"
  },
  {
    "id": 51,
    "deviceNumber": 48,
    "icon": 3,
    "name": "שכיבה משולש s",
    "weight": 21,
    "repititions": 10,
    "sets": 2,
    "notes": "S"
  }
]
